Program Files/simulation/qsim/gate1.msim.vcd
$comment
	File created using the following command:
		vcd file gate1.msim.vcd -direction
$end
$date
	Thu Oct 17 09:01:22 2019
$end
$version
	ModelSim Version 10.5b
$end
$timescale
	1ps
$end

$scope module secondsevenseg_vlg_vec_tst $end
$var reg 1 ! A $end
$var reg 1 " B $end
$var reg 1 # C $end
$var reg 1 $ D $end
$var wire 1 % Five $end
$var wire 1 & Four $end
$var wire 1 ' One $end
$var wire 1 ( Six $end
$var wire 1 ) Three $end
$var wire 1 * Two $end
$var wire 1 + Zero $end

$scope module i1 $end
$var wire 1 , gnd $end
$var wire 1 - vcc $end
$var wire 1 . unknown $end
$var tri1 1 / devclrn $end
$var tri1 1 0 devpor $end
$var tri1 1 1 devoe $end
$var wire 1 2 ~QUARTUS_CREATED_GND~I_combout $end
$var wire 1 3 ~QUARTUS_CREATED_UNVM~~busy $end
$var wire 1 4 ~QUARTUS_CREATED_ADC1~~eoc $end
$var wire 1 5 ~QUARTUS_CREATED_ADC2~~eoc $end
$var wire 1 6 Zero~output_o $end
$var wire 1 7 One~output_o $end
$var wire 1 8 Two~output_o $end
$var wire 1 9 Three~output_o $end
$var wire 1 : Four~output_o $end
$var wire 1 ; Five~output_o $end
$var wire 1 < Six~output_o $end
$var wire 1 = A~input_o $end
$var wire 1 > D~input_o $end
$var wire 1 ? C~input_o $end
$var wire 1 @ B~input_o $end
$var wire 1 A inst7~0_combout $end
$var wire 1 B inst10~0_combout $end
$var wire 1 C inst11~0_combout $end
$var wire 1 D inst16~0_combout $end
$var wire 1 E inst20~0_combout $end
$var wire 1 F inst15~0_combout $end
$var wire 1 G inst18~0_combout $end
$upscope $end
$upscope $end
$enddefinitions $end
#0
$dumpvars
0!
0"
0#
0$
1%
0&
0'
0(
0)
0*
0+
0,
1-
x.
1/
10
11
02
z3
z4
z5
06
07
08
09
0:
1;
0<
0=
0>
0?
0@
0A
0B
0C
0D
0E
1F
0G
$end
#1000000
1$
1>
1G
0F
1E
1D
1A
16
19
1:
0;
1<
1(
0%
1&
1)
1+
#2000000
1#
0$
0>
1?
0G
1F
0E
0D
1C
0A
06
18
09
0:
1;
0<
0(
1%
0&
0)
1*
0+
#3000000
1$
1>
1G
1E
0C
1B
17
08
1:
1<
1(
1&
0*
1'
#4000000
1"
0#
0$
0>
0?
1@
0G
0F
0E
1D
0B
07
19
0:
0;
0<
0(
0%
0&
1)
0'
#5000000
1$
1>
1G
1E
0D
1B
1A
16
17
09
1:
1<
1(
1&
0)
1'
1+
#6000000
1#
0$
0>
1?
0G
1D
0B
0A
06
07
19
0<
0(
1)
0'
0+
#7000000
1$
1>
0D
09
0)
#8000000
0"
0#
0$
0>
0?
0@
1F
0E
0:
1;
1%
0&
